# Fdb version 3
["bibtex main"] 1562682383 "main.aux" "main.bbl" "main" 1565623924
  "/home/librantara/Documents/INTERNSHIP_DAN_TA/LateX/internship2ta2019/Librantara Erlangga/Internship_2/section/abstract.aux" 1563072977 455 3ae5d75d64a6a63fa8934052457df9f3 ""
  "/home/librantara/Documents/INTERNSHIP_DAN_TA/LateX/internship2ta2019/Librantara Erlangga/Internship_2/section/abstrak.aux" 1563072977 454 aee66639b7002e2f5ef542dbb7a461ca ""
  "/home/librantara/Documents/INTERNSHIP_DAN_TA/LateX/internship2ta2019/Librantara Erlangga/Internship_2/section/acknowlegements.aux" 1563072977 462 b361bbbc6934b29842e3937c7d9794bb ""
  "/home/librantara/Documents/INTERNSHIP_DAN_TA/LateX/internship2ta2019/Librantara Erlangga/Internship_2/section/chapter1.aux" 1563072977 1565 fbeb53731525acf68e0c666335467004 ""
  "/home/librantara/Documents/INTERNSHIP_DAN_TA/LateX/internship2ta2019/Librantara Erlangga/Internship_2/section/chapter2.aux" 1563072977 3677 cc523ef29cd85e2bec2cd91f56468b30 ""
  "/home/librantara/Documents/INTERNSHIP_DAN_TA/LateX/internship2ta2019/Librantara Erlangga/Internship_2/section/chapter3.aux" 1563072977 1580 595fe6c1a2ba4e881babb62a096c29c2 ""
  "/home/librantara/Documents/INTERNSHIP_DAN_TA/LateX/internship2ta2019/Librantara Erlangga/Internship_2/section/chapter4.aux" 1563072978 2090 c06c9a0b5c222f5b56732c4bd772abc3 ""
  "/home/librantara/Documents/INTERNSHIP_DAN_TA/LateX/internship2ta2019/Librantara Erlangga/Internship_2/section/chapter5.aux" 1563072979 15916 c7a6891dc94cfe26959eff785a56bf66 ""
  "/home/librantara/Documents/INTERNSHIP_DAN_TA/LateX/internship2ta2019/Librantara Erlangga/Internship_2/section/chapter6.aux" 1563072981 5919 eade8e0886dcd8b93ce1cf2d3d47e312 ""
  "/home/librantara/Documents/INTERNSHIP_DAN_TA/LateX/internship2ta2019/Librantara Erlangga/Internship_2/section/chapter7.aux" 1563072981 970 8a7f9a65b243340348787df02e04fd96 ""
  "/home/librantara/Documents/INTERNSHIP_DAN_TA/LateX/internship2ta2019/Librantara Erlangga/Internship_2/section/dedication.aux" 1563072977 457 eabefa294b266efcadb660dc7f86ca79 ""
  "/usr/share/texmf-dist/bibtex/bst/IEEEtran/IEEEtran.bst" 1550406587 57748 7c8250ecf02814ce6ddc0cdbb63df1dd ""
  "main.aux" 1563072981 1248 d6727f42ec3723f6cf34717eb1032ab3 ""
  "references.bib" 1562167264 6485 1f0f1dc709baaed03789cdf3898e44a5 ""
  (generated)
  "main.bbl"
  "main.blg"
["pdflatex"] 1563072976 "/home/librantara/Documents/INTERNSHIP_DAN_TA/LateX/internship2ta2019/Librantara Erlangga/Internship_2/main.tex" "/home/librantara/Documents/INTERNSHIP_DAN_TA/LateX/internship2ta2019/Librantara Erlangga/Internship_2/main.pdf" "main" 1565623924
  "/home/librantara/Documents/INTERNSHIP_DAN_TA/LateX/internship2ta2019/Librantara Erlangga/Internship_2/main.aux" 1563072981 1248 d6727f42ec3723f6cf34717eb1032ab3 ""
  "/home/librantara/Documents/INTERNSHIP_DAN_TA/LateX/internship2ta2019/Librantara Erlangga/Internship_2/main.tex" 1563072976 2822 4e0063f92b377aeaa6ab8f239afb3f24 ""
  "/usr/share/texmf-dist/fonts/map/fontname/texfonts.map" 1550406775 3332 103109f5612ad95229751940c61aada0 ""
  "/usr/share/texmf-dist/fonts/tfm/public/amsfonts/cmextra/cmex7.tfm" 1550406775 1004 54797486969f23fa377b128694d548df ""
  "/usr/share/texmf-dist/fonts/tfm/public/amsfonts/cmextra/cmex8.tfm" 1550406775 988 bdf658c3bfc2d96d3c8b02cfc1c94c20 ""
  "/usr/share/texmf-dist/fonts/tfm/public/amsfonts/symbols/msam10.tfm" 1550406775 916 f87d7c45f9c908e672703b83b72241a3 ""
  "/usr/share/texmf-dist/fonts/tfm/public/amsfonts/symbols/msam7.tfm" 1550406775 928 2dc8d444221b7a635bb58038579b861a ""
  "/usr/share/texmf-dist/fonts/tfm/public/amsfonts/symbols/msbm10.tfm" 1550406775 908 2921f8a10601f252058503cc6570e581 ""
  "/usr/share/texmf-dist/fonts/tfm/public/amsfonts/symbols/msbm7.tfm" 1550406775 940 228d6584342e91276bf566bcf9716b83 ""
  "/usr/share/texmf-dist/fonts/tfm/public/cm/cmbx12.tfm" 1550406775 1324 c910af8c371558dc20f2d7822f66fe64 ""
  "/usr/share/texmf-dist/fonts/tfm/public/cm/cmbxti10.tfm" 1550406775 1532 9162035f4e7176612125649e348e2195 ""
  "/usr/share/texmf-dist/fonts/tfm/public/cm/cmex10.tfm" 1550406775 992 662f679a0b3d2d53c1b94050fdaa3f50 ""
  "/usr/share/texmf-dist/fonts/tfm/public/cm/cmmi12.tfm" 1550406775 1524 4414a8315f39513458b80dfc63bff03a ""
  "/usr/share/texmf-dist/fonts/tfm/public/cm/cmmi6.tfm" 1550406775 1512 f21f83efb36853c0b70002322c1ab3ad ""
  "/usr/share/texmf-dist/fonts/tfm/public/cm/cmmi8.tfm" 1550406775 1520 eccf95517727cb11801f4f1aee3a21b4 ""
  "/usr/share/texmf-dist/fonts/tfm/public/cm/cmr12.tfm" 1550406775 1288 655e228510b4c2a1abe905c368440826 ""
  "/usr/share/texmf-dist/fonts/tfm/public/cm/cmr17.tfm" 1550406775 1292 296a67155bdbfc32aa9c636f21e91433 ""
  "/usr/share/texmf-dist/fonts/tfm/public/cm/cmr6.tfm" 1550406775 1300 b62933e007d01cfd073f79b963c01526 ""
  "/usr/share/texmf-dist/fonts/tfm/public/cm/cmr8.tfm" 1550406775 1292 21c1c5bfeaebccffdb478fd231a0997d ""
  "/usr/share/texmf-dist/fonts/tfm/public/cm/cmsy10.tfm" 1550406775 1124 6c73e740cf17375f03eec0ee63599741 ""
  "/usr/share/texmf-dist/fonts/tfm/public/cm/cmsy6.tfm" 1550406775 1116 933a60c408fc0a863a92debe84b2d294 ""
  "/usr/share/texmf-dist/fonts/tfm/public/cm/cmsy8.tfm" 1550406775 1120 8b7d695260f3cff42e636090a8002094 ""
  "/usr/share/texmf-dist/fonts/tfm/public/cm/cmti12.tfm" 1550406775 1484 ed72f8f5cf654cda15ecc8e32bfcbee5 ""
  "/usr/share/texmf-dist/fonts/type1/public/amsfonts/cm/cmbx12.pfb" 1550406775 32080 340ef9bf63678554ee606688e7b5339d ""
  "/usr/share/texmf-dist/fonts/type1/public/amsfonts/cm/cmbxti10.pfb" 1550406775 36554 b67dc2cfa451409e100b3fcf5f506509 ""
  "/usr/share/texmf-dist/fonts/type1/public/amsfonts/cm/cmr12.pfb" 1550406775 32722 d7379af29a190c3f453aba36302ff5a9 ""
  "/usr/share/texmf-dist/fonts/type1/public/amsfonts/cm/cmr17.pfb" 1550406775 32362 179c33bbf43f19adbb3825bb4e36e57a ""
  "/usr/share/texmf-dist/fonts/type1/public/amsfonts/cm/cmsy10.pfb" 1550406775 32569 5e5ddc8df908dea60932f3c484a54c0d ""
  "/usr/share/texmf-dist/fonts/type1/public/amsfonts/cm/cmti12.pfb" 1550406775 36118 fad905eba93cff5bce1e185fe980a177 ""
  "/usr/share/texmf-dist/tex/context/base/mkii/supp-pdf.mkii" 1550406775 71627 94eb9990bed73c364d7f53f960cc8c5b ""
  "/usr/share/texmf-dist/tex/generic/oberdiek/etexcmds.sty" 1550406775 7612 729a8cc22a1ee0029997c7f74717ae05 ""
  "/usr/share/texmf-dist/tex/generic/oberdiek/ifluatex.sty" 1550406775 7324 2310d1247db0114eb4726807c8837a0e ""
  "/usr/share/texmf-dist/tex/generic/oberdiek/ifpdf.sty" 1550406775 1300 96620a7d94bc0ceb261d968770ce8315 ""
  "/usr/share/texmf-dist/tex/generic/oberdiek/infwarerr.sty" 1550406775 8253 473e0e41f9adadb1977e8631b8f72ea6 ""
  "/usr/share/texmf-dist/tex/generic/oberdiek/kvdefinekeys.sty" 1550406775 5152 b67a3a964ad9851e095110c854a1d461 ""
  "/usr/share/texmf-dist/tex/generic/oberdiek/kvsetkeys.sty" 1550406775 14040 ac8866aac45982ac84021584b0abb252 ""
  "/usr/share/texmf-dist/tex/generic/oberdiek/ltxcmds.sty" 1550406775 18425 5b3c0c59d76fac78978b5558e83c1f36 ""
  "/usr/share/texmf-dist/tex/generic/oberdiek/pdftexcmds.sty" 1550406775 20457 0d2e642faacbb41c9d72690f8cc529cd ""
  "/usr/share/texmf-dist/tex/generic/xkeyval/xkeyval.tex" 1550406775 19231 26434a5656c684f5ffb1f26f98006baa ""
  "/usr/share/texmf-dist/tex/generic/xkeyval/xkvutils.tex" 1550406775 7677 6f5ce7c1124cad7ec57d05b2562bd8fe ""
  "/usr/share/texmf-dist/tex/latex/adjustbox/adjcalc.sty" 1550406342 5608 e823b3adfbc2ea70e453a21ea6e2ee12 ""
  "/usr/share/texmf-dist/tex/latex/adjustbox/adjustbox.sty" 1550406342 55974 e90ddd9a6114a7008a6915da904f2847 ""
  "/usr/share/texmf-dist/tex/latex/adjustbox/tc-pdftex.def" 1550406342 4061 aa67e478bd1a58a42e026c354f10b158 ""
  "/usr/share/texmf-dist/tex/latex/adjustbox/trimclip.sty" 1550406342 7142 42aaa49a4afcdc52e9d95e3b19f439be ""
  "/usr/share/texmf-dist/tex/latex/amsfonts/amsfonts.sty" 1550406775 5949 3f3fd50a8cc94c3d4cbf4fc66cd3df1c ""
  "/usr/share/texmf-dist/tex/latex/amsfonts/amssymb.sty" 1550406775 13829 94730e64147574077f8ecfea9bb69af4 ""
  "/usr/share/texmf-dist/tex/latex/amsfonts/umsa.fd" 1550406775 961 6518c6525a34feb5e8250ffa91731cff ""
  "/usr/share/texmf-dist/tex/latex/amsfonts/umsb.fd" 1550406775 961 d02606146ba5601b5645f987c92e6193 ""
  "/usr/share/texmf-dist/tex/latex/base/ifthen.sty" 1550406775 5161 c004ea5a189d4bdcf42e86754ad75a58 ""
  "/usr/share/texmf-dist/tex/latex/base/omscmr.fd" 1550406775 2472 aa08940f0a4dc6c24ae9f943b04ae0b9 ""
  "/usr/share/texmf-dist/tex/latex/base/report.cls" 1550406775 22992 ac205d2578ad3f18cf73b50579632d1c ""
  "/usr/share/texmf-dist/tex/latex/base/size12.clo" 1550406775 8305 6a682ae291edd56e2d7accbf95eca451 ""
  "/usr/share/texmf-dist/tex/latex/collectbox/collectbox.sty" 1550406342 9116 495d44b5a3e7be0c46c5d1f053f457f0 ""
  "/usr/share/texmf-dist/tex/latex/graphics-cfg/graphics.cfg" 1550406775 1224 978390e9c2234eab29404bc21b268d1e ""
  "/usr/share/texmf-dist/tex/latex/graphics-def/pdftex.def" 1550406775 17334 520b9b85ad8a2a48eda3f643e27a5179 ""
  "/usr/share/texmf-dist/tex/latex/graphics/graphics.sty" 1550406775 15272 5a97061616e0c8b2aa79c6615ff769f4 ""
  "/usr/share/texmf-dist/tex/latex/graphics/graphicx.sty" 1550406775 9063 d0a305975932762117cd1f06a582f896 ""
  "/usr/share/texmf-dist/tex/latex/graphics/keyval.sty" 1550406775 2591 6404d0c7d28505fb38ce0d86c2e28ae7 ""
  "/usr/share/texmf-dist/tex/latex/graphics/trig.sty" 1550406775 3977 cb9221976ed8a183afad65b59aa8629a ""
  "/usr/share/texmf-dist/tex/latex/ifoddpage/ifoddpage.sty" 1550406342 2148 0426cd8bb94163c1e23726d0c15e2c21 ""
  "/usr/share/texmf-dist/tex/latex/latexconfig/epstopdf-sys.cfg" 1550406775 678 4792914a8f45be57bb98413425e4c7af ""
  "/usr/share/texmf-dist/tex/latex/oberdiek/epstopdf-base.sty" 1550406775 12095 5337833c991d80788a43d3ce26bd1c46 ""
  "/usr/share/texmf-dist/tex/latex/oberdiek/grfext.sty" 1550406775 7075 2fe3d848bba95f139de11ded085e74aa ""
  "/usr/share/texmf-dist/tex/latex/oberdiek/kvoptions.sty" 1550406775 22417 1d9df1eb66848aa31b18a593099cf45c ""
  "/usr/share/texmf-dist/tex/latex/tools/array.sty" 1550406775 12527 31ab547f6520657998ecf91709f950ac ""
  "/usr/share/texmf-dist/tex/latex/tools/tabularx.sty" 1550406775 7145 01b7b53bf69f5c0f63803657eb51217f ""
  "/usr/share/texmf-dist/tex/latex/varwidth/varwidth.sty" 1550406342 10894 d359a13923460b2a73d4312d613554c8 ""
  "/usr/share/texmf-dist/tex/latex/xkeyval/xkeyval.sty" 1550406775 4962 9c1069474ff71dbc47d5006555e352d3 ""
  "/usr/share/texmf-dist/web2c/texmf.cnf" 1550406775 33301 a3134070eacafb10b1f371612ce2650d ""
  "/var/lib/texmf/fonts/map/pdftex/updmap/pdftex.map" 1557032975 3106252 d5255ed7fd6ec6ea7699581e9a54cb46 ""
  "/var/lib/texmf/web2c/pdftex/pdflatex.fmt" 1557032960 7919195 50f523a7c7946097d84349a81faee635 ""
  "figures/Activity/ActivContact.jpg" 1560661384 12516 d7c62c61fdb79c8d9ef63213a3de7a79 ""
  "figures/Activity/ActivFeatures.jpg" 1560661368 12558 d5bd14f303099190ea3330d06634ffd2 ""
  "figures/Activity/ActivHome.jpg" 1560661139 33238 a93a0cc04c18bb17158225c54c0a1613 ""
  "figures/Activity/ActivProduct.jpg" 1560661174 12521 a9ba524a47e1de94bbe73f96f2b23263 ""
  "figures/ArsitekturSebelum.jpg" 1560268178 51463 30d060ef85c174f0784bee997412015c ""
  "figures/ArsitekturSesudah.jpg" 1560660652 33383 948cba8bc80bf53062061f2e70a3150a ""
  "figures/ClassD.jpeg" 1560352637 53758 19de69f432777fdbdf40b7bd08e2b60e ""
  "figures/Collaboration/CommunicationDiagramContactPage.PNG" 1560865296 24386 e2fcd5c2f8af099ad39722b1c40a0253 ""
  "figures/Collaboration/CommunicationDiagramFeatruePages.PNG" 1560865193 25342 9b5677c6332d51c721a85f5ab39f5be9 ""
  "figures/Collaboration/CommunicationDiagramHomePages.PNG" 1560865127 25017 953fc5eab70ee76393ea5a24bf8c6d14 ""
  "figures/Collaboration/CommunicationDiagramKnowledgeBasePage.PNG" 1560865270 31195 c31d9fdc23b9146c8de23fc007ffb69a ""
  "figures/Collaboration/CommunicationDiagramProductPage.PNG" 1560865236 24229 83e17c39cce75909a28388382f6222dc ""
  "figures/Compare/Gtmetrix/Detail1.PNG" 1560867586 13311 8d944e561cca173d8fcf109e12cc437a ""
  "figures/Compare/Gtmetrix/Detail2.PNG" 1560867599 13198 58229aea59d9a659e9aa86e84c4ca89c ""
  "figures/Compare/Gtmetrix/Detail3.PNG" 1560867612 11077 53e6eb7ddd49d212c946579b351f0ae4 ""
  "figures/Compare/Gtmetrix/FullSebelum.PNG" 1560866174 113591 fa3a66ae03567e906bc9a330f4ad3762 ""
  "figures/Compare/Gtmetrix/FullSesudah.PNG" 1560866193 111081 d583dca20a1f2d7b17f000ae54592c9f ""
  "figures/Compare/Wapt/Micro/Sum.PNG" 1560950532 7667 ff1e13df12a2492eee85b9d87dc9285f ""
  "figures/Compare/Wapt/NonMicro/Sum.PNG" 1560950305 7037 2ff59000e0c16b92f24bcd9cb979ee70 ""
  "figures/SS/Contact.png" 1560956125 268539 253a9e59f10ca20ec008589b438ac90a ""
  "figures/SS/Features.png" 1560956099 118485 5ec18a2e19a41135f6c748d6ac17fc2c ""
  "figures/SS/Home.png" 1560955947 404638 c596af27b6faf47782d30aeff3b73db0 ""
  "figures/SS/PMK.png" 1560956111 153484 e6de64aae0d5022ceeaa239d0350d5b1 ""
  "figures/SS/Product.png" 1560956043 59956 99e298323c88a01feae812203b7f4945 ""
  "figures/Sequence/SeqContact.jpg" 1560660843 13891 52ec9b2f1a5cd206a0b2e57612395f01 ""
  "figures/Sequence/SeqFeatures.jpg" 1560353648 13909 82b12d50cf52fe10a8bd4a0ab84e5e04 ""
  "figures/Sequence/SeqHome.jpg" 1560353218 14325 8f84c351347c28058a78c472459efd23 ""
  "figures/Sequence/SeqKB.jpg" 1560660818 14243 b4e0d54216f3bf37592c2313774bd50d ""
  "figures/Sequence/SeqProduct.jpg" 1560660789 13877 2361e3e6666dd3cb2ed3eebb0c143002 ""
  "figures/StateChart/Contact.jpg" 1560662173 11881 cec96d99db48dd04d6e97965cbd3c389 ""
  "figures/StateChart/Features.jpg" 1560662084 12031 fc349bdfffffb087456b334d3ffb4f8e ""
  "figures/StateChart/Home.jpg" 1560661418 15458 a34cb04797dd14e9bbe94c9e612fcf17 ""
  "figures/StateChart/PMK.jpg" 1560662102 13888 f8df4457a3d490561affef97fddf6452 ""
  "figures/StateChart/Product.jpg" 1560661444 11796 2b9f870ea211aaca3ee3385fcff9181e ""
  "figures/UI/ContactPage.png" 1560662259 42968 e93b0c941d4b1e7613f470d4c893bdf5 ""
  "figures/UI/FeturesPages.png" 1560662258 30546 6299a07d5bbf39b7c2a12de4295a86e7 ""
  "figures/UI/HomePages.png" 1560662258 30211 7fcbe6d44c2f2e1a5a456f145780acad ""
  "figures/UI/KnowledgeBasePage.png" 1560662259 67439 9a8cdf93b617b1e9c7aa19e59a20e10f ""
  "figures/UI/ProductPages.png" 1560662258 35566 8d5aef8fe1b61fb5fd4716bfbae1bf81 ""
  "figures/Usecase.png" 1560350282 35759 dd24debcc32cf2bfa9a063fe2ffac371 ""
  "figures/docotel.png" 1549002284 93546 5c30ea08a24b6eff5da7589b1683c54d ""
  "figures/xp.png" 1560170632 71616 ad1d36fa0453ebaa8e8d3a4a7d2d7919 ""
  "logo-poltekpos.png" 1554286922 103033 73c02b41f948b6abfa0caf5c332e10a7 ""
  "main.aux" 1563072981 1248 d6727f42ec3723f6cf34717eb1032ab3 ""
  "main.bbl" 1562682383 5957 a5df9d38697579d6aedd03ec7892e051 "bibtex main"
  "main.lof" 1563072981 5381 24b059dca7112f85238580207ad58d81 ""
  "main.lot" 1563072981 1286 70f97c770c51e1023b1e773567a706f6 ""
  "main.tex" 1563072976 2822 4e0063f92b377aeaa6ab8f239afb3f24 ""
  "main.toc" 1563072981 10174 c861fbf625d1a1a64c6e34f89a33c426 ""
  "ociamthesis.cls" 1562671064 8591 52bc953b2084917ba9147d17a3ce0b72 ""
  "section/abstract.aux" 1563072977 455 3ae5d75d64a6a63fa8934052457df9f3 ""
  "section/abstract.tex" 1562513836 1693 2a187ac46121f5f9baf7e7303c0ac784 ""
  "section/abstrak.aux" 1563072977 454 aee66639b7002e2f5ef542dbb7a461ca ""
  "section/abstrak.tex" 1562595607 2078 9ff3900caae46028b0ee448db8534ca9 ""
  "section/acknowlegements.aux" 1563072977 462 b361bbbc6934b29842e3937c7d9794bb ""
  "section/acknowlegements.tex" 1562671026 1080 8433927507e8ee0b4786164259b8ce38 ""
  "section/chapter1.aux" 1563072977 1565 fbeb53731525acf68e0c666335467004 ""
  "section/chapter1.tex" 1562080802 4354 41bac9ea4df41ab4e15dd67488bb5740 ""
  "section/chapter2.aux" 1563072977 3677 cc523ef29cd85e2bec2cd91f56468b30 ""
  "section/chapter2.tex" 1562595770 9617 9eceaf61904f24faefcf451a0146b993 ""
  "section/chapter3.aux" 1563072977 1580 595fe6c1a2ba4e881babb62a096c29c2 ""
  "section/chapter3.tex" 1559059260 2245 11313e47cb644761ddd48af9b5e6f2a6 ""
  "section/chapter4.aux" 1563072978 2090 c06c9a0b5c222f5b56732c4bd772abc3 ""
  "section/chapter4.tex" 1562671127 3300 c48260d86ddf7ca47675d86d7f66e91b ""
  "section/chapter5.aux" 1563072979 15916 c7a6891dc94cfe26959eff785a56bf66 ""
  "section/chapter5.tex" 1562671158 23303 efcb21b6578fff0edec52fb4a8ceb2c5 ""
  "section/chapter6.aux" 1563072981 5919 eade8e0886dcd8b93ce1cf2d3d47e312 ""
  "section/chapter6.tex" 1562671183 10528 a6a5f999a32cb76ebe755179ef0727f0 ""
  "section/chapter7.aux" 1563072981 970 8a7f9a65b243340348787df02e04fd96 ""
  "section/chapter7.tex" 1562772763 1092 0f881012435ecf0420d415a5d33375d0 ""
  "section/dedication.aux" 1563072977 457 eabefa294b266efcadb660dc7f86ca79 ""
  "section/dedication.tex" 1554286922 160 f3b4fdb6432138ab83145a0885df84eb ""
  (generated)
  "main.lof"
  "section/chapter6.aux"
  "main.log"
  "section/chapter4.aux"
  "section/chapter7.aux"
  "section/acknowlegements.aux"
  "main.toc"
  "/home/librantara/Documents/INTERNSHIP_DAN_TA/LateX/internship2ta2019/Librantara Erlangga/Internship_2/main.log"
  "section/chapter2.aux"
  "main.lot"
  "section/chapter5.aux"
  "section/abstract.aux"
  "section/dedication.aux"
  "/home/librantara/Documents/INTERNSHIP_DAN_TA/LateX/internship2ta2019/Librantara Erlangga/Internship_2/main.pdf"
  "main.pdf"
  "section/chapter1.aux"
  "section/abstrak.aux"
  "main.aux"
  "section/chapter3.aux"
