\relax 
\citation{perdana2018pengembangan}
\citation{devadiga2017software}
\citation{paternoster2014software}
\citation{bucchiarone2018monolithic}
\citation{hasselbring2017microservice}
\citation{suryotrisongko2017arsitektur}
\providecommand \oddpage@label [2]{}
\newlabel{FirstPage}{{}{1}}
\@writefile{toc}{\contentsline {section}{\numberline {1.}Introduction}{1}\protected@file@percent }
\newlabel{Introduction}{{1.}{1}}
\@writefile{toc}{\contentsline {paragraph}{}{1}\protected@file@percent }
\citation{godbolt2016frontend}
\citation{pis0809_2015}
\citation{van2016web}
\citation{khanapurkar2014system}
\citation{haryati2012research}
\citation{pressman2012rekayasa}
\@writefile{toc}{\contentsline {section}{\numberline {2.}Related Works}{2}\protected@file@percent }
\newlabel{RelatedWorks}{{2.}{2}}
\@writefile{toc}{\contentsline {section}{\numberline {3.}Research Method}{2}\protected@file@percent }
\newlabel{ResearchMethod}{{3.}{2}}
\@writefile{toc}{\contentsline {subsection}{\numberline {3.1.}Extreme Programming}{2}\protected@file@percent }
\citation{geers_2017}
\citation{ghani2013role}
\citation{dalalah2014extreme}
\citation{akpolat2014enhancing}
\@writefile{lof}{\contentsline {figure}{\numberline {1}{\ignorespaces Stages Process in XP\relax }}{3}\protected@file@percent }
\providecommand*\caption@xref[2]{\@setref\relax\@undefined{#1}}
\newlabel{extreme programming}{{1}{3}}
\@writefile{toc}{\contentsline {subsection}{\numberline {3.2.}Micro Frontends}{3}\protected@file@percent }
\@writefile{toc}{\contentsline {section}{\numberline {4.}Result and Analysis}{3}\protected@file@percent }
\newlabel{ResultAnalysis}{{4.}{3}}
\citation{vos2013evolutionary}
\@writefile{lof}{\contentsline {figure}{\numberline {2}{\ignorespaces D'health Website Monolithic Architecture\relax }}{4}\protected@file@percent }
\newlabel{ArsitekturSaatIni}{{2}{4}}
\@writefile{lot}{\contentsline {table}{\numberline {1}{\ignorespaces Dhealth Website Development Task\relax }}{4}\protected@file@percent }
\newlabel{task}{{1}{4}}
\@writefile{lot}{\contentsline {table}{\numberline {2}{\ignorespaces Black-box Testing Results\relax }}{4}\protected@file@percent }
\newlabel{btes}{{2}{4}}
\@writefile{lof}{\contentsline {figure}{\numberline {3}{\ignorespaces Micro Frontends Architecture on D'health Website\relax }}{5}\protected@file@percent }
\newlabel{ArsitekturSelanjutnya}{{3}{5}}
\@writefile{lot}{\contentsline {table}{\numberline {3}{\ignorespaces Architectural comparison results\relax }}{5}\protected@file@percent }
\newlabel{compare}{{3}{5}}
\@writefile{toc}{\contentsline {section}{\numberline {5.}Conclusion \& Recomendation}{5}\protected@file@percent }
\@writefile{toc}{\contentsline {subsection}{\numberline {5.1.}Conclusion}{5}\protected@file@percent }
\bibstyle{IEEEtran}
\bibdata{references}
\bibcite{perdana2018pengembangan}{1}
\bibcite{devadiga2017software}{2}
\bibcite{paternoster2014software}{3}
\bibcite{bucchiarone2018monolithic}{4}
\bibcite{hasselbring2017microservice}{5}
\bibcite{suryotrisongko2017arsitektur}{6}
\bibcite{godbolt2016frontend}{7}
\bibcite{pis0809_2015}{8}
\bibcite{van2016web}{9}
\bibcite{khanapurkar2014system}{10}
\bibcite{haryati2012research}{11}
\bibcite{pressman2012rekayasa}{12}
\bibcite{geers_2017}{13}
\bibcite{ghani2013role}{14}
\bibcite{dalalah2014extreme}{15}
\bibcite{akpolat2014enhancing}{16}
\bibcite{vos2013evolutionary}{17}
\@writefile{toc}{\contentsline {subsection}{\numberline {5.2.}Recomendation}{6}\protected@file@percent }
\newlabel{LastPage}{{}{6}}
\xdef\lastpage@lastpage{6}
\gdef\lastpage@lastpageHy{}
