% Generated by IEEEtran.bst, version: 1.14 (2015/08/26)
\begin{thebibliography}{10}
\providecommand{\url}[1]{#1}
\csname url@samestyle\endcsname
\providecommand{\newblock}{\relax}
\providecommand{\bibinfo}[2]{#2}
\providecommand{\BIBentrySTDinterwordspacing}{\spaceskip=0pt\relax}
\providecommand{\BIBentryALTinterwordstretchfactor}{4}
\providecommand{\BIBentryALTinterwordspacing}{\spaceskip=\fontdimen2\font plus
\BIBentryALTinterwordstretchfactor\fontdimen3\font minus
  \fontdimen4\font\relax}
\providecommand{\BIBforeignlanguage}[2]{{%
\expandafter\ifx\csname l@#1\endcsname\relax
\typeout{** WARNING: IEEEtran.bst: No hyphenation pattern has been}%
\typeout{** loaded for the language `#1'. Using the pattern for}%
\typeout{** the default language instead.}%
\else
\language=\csname l@#1\endcsname
\fi
#2}}
\providecommand{\BIBdecl}{\relax}
\BIBdecl

\bibitem{ng2016artificial}
A.~Ng, ``What artificial intelligence can and can’t do right now,''
  \emph{Harvard Business Review}, vol.~9, 2016.

\bibitem{warwick2013artificial}
K.~Warwick, \emph{Artificial intelligence: the basics}.\hskip 1em plus 0.5em
  minus 0.4em\relax Routledge, 2013.

\bibitem{suhartono_2013}
D.~SUHARTONO, ``Natural language processing,'' \emph{School of Computer
  Science}, Jun 2013.

\bibitem{al2015improving}
A.~Al-Alwani, ``Improving email response in an email management system using
  natural language processing based probabilistic methods,'' \emph{Journal of
  Computer Science}, vol.~11, no.~1, p. 109, 2015.

\bibitem{paliwahet2017pencarian}
I.~N.~S. Paliwahet, I.~M. Sukarsa, and I.~K. G.~D. Putra, ``Pencarian informasi
  wisata daerah bali menggunakan teknologi chatbot,'' \emph{Lontar Komputer:
  Jurnal Ilmiah Teknologi Informasi}, pp. 144--153, 2017.

\bibitem{maskur2016perancangan}
M.~Maskur, ``Perancangan chatbot pusat informasi mahasiswa menggunakan aiml
  sebagai virtual assistant berbasis web,'' \emph{Kinetik: Game Technology,
  Information System, Computer Network, Computing, Electronics, and Control},
  vol.~1, no.~3, pp. 123--128, 2016.

\bibitem{christianto2016penggunaan}
D.~Christianto, E.~Siswanto, and R.~Chaniago, ``Penggunaan named entity
  recognition dan artificial intelligence markup language untuk penerapan
  chatbot berbasis teks,'' \emph{Jurnal Telematika}, vol.~10, no.~2, p.~8,
  2016.

\bibitem{sari2018implementasi}
D.~W. Sari \emph{et~al.}, ``Implementasi natural language processing pada
  chatbot peribahasa indonesia,'' 2018.

\bibitem{deshpande2014comparative}
R.~Deshpande, K.~Vaze, S.~Rathod, and T.~Jarhad, ``Comparative study of
  document similarity algorithms and clustering algorithms for sentiment
  analysis,'' \emph{International Journal of Emerging Trends \& Technology in
  Computer Science}, vol.~3, no.~5, 2014.

\bibitem{wahyuni2017penerapan}
R.~T. Wahyuni, D.~Prastiyanto, and E.~Supraptono, ``Penerapan algoritma cosine
  similarity dan pembobotan tf-idf pada sistem klasifikasi dokumen skripsi,''
  \emph{Jurnal Teknik Elektro}, vol.~9, no.~1, pp. 18--23, 2017.

\bibitem{lahitani2016cosine}
A.~R. Lahitani, A.~E. Permanasari, and N.~A. Setiawan, ``Cosine similarity to
  determine similarity measure: Study case in online essay assessment,'' in
  \emph{2016 4th International Conference on Cyber and IT Service
  Management}.\hskip 1em plus 0.5em minus 0.4em\relax IEEE, 2016, pp. 1--6.

\bibitem{nurdiana2016perbandingan}
O.~Nurdiana, J.~Jumadi, and D.~Nursantika, ``Perbandingan metode cosine
  similarity dengan metode jaccard similarity pada aplikasi pencarian terjemah
  al-qur’an dalam bahasa indonesia,'' \emph{Jurnal Online Informatika},
  vol.~1, no.~1, pp. 59--63, 2016.

\bibitem{kmsuper}
J.~P. Km, ``Super agent chatbot “3s” sebagai media informasi menggunakan
  metoda natural language processing (nlp),'' \emph{Jurnal Teknologi dan Open
  Source (JTOS)}, vol.~2, no.~1, pp. 53--64, 2019.

\bibitem{nugraha2014pengembangan}
D.~Nugraha and S.~Winiarti, ``Pengembangan media pembelajaran sistem pelacakan
  pada mata kuliah kecerdasan buatan berbasis multimedia,'' \emph{Jurnal
  Sarjana Teknik Informatika}, vol.~2, no.~1, pp. 67--77, 2014.

\bibitem{ridwan2013pembangunan}
F.~Ridwan, ``Pembangunan aplikasi natural language processing untuk pembuatan
  chat bot berbasis web (di universitas komputer indonesia),'' 2013.

\bibitem{HAN201283}
J.~Han, M.~Kamber, and J.~Pei, ``3 - data preprocessing,'' in \emph{Data Mining
  (Third Edition)}, third edition~ed., ser. The Morgan Kaufmann Series in Data
  Management Systems, J.~Han, M.~Kamber, and J.~Pei, Eds.\hskip 1em plus 0.5em
  minus 0.4em\relax Boston: Morgan Kaufmann, 2012, pp. 83 -- 124.

\bibitem{rahman2017programming}
A.~Rahman, A.~Al~Mamun, and A.~Islam, ``Programming challenges of chatbot:
  Current and future prospective,'' in \emph{2017 IEEE Region 10 Humanitarian
  Technology Conference (R10-HTC)}.\hskip 1em plus 0.5em minus 0.4em\relax
  IEEE, 2017, pp. 75--78.

\bibitem{bahartyan2015integrasi}
E.~Bahartyan, N.~Bahtiar, and I.~Waspada, ``Integrasi chatbot berbasis aiml
  pada website e-commerce sebagai virtual assistant dalam pencarian dan
  pemesanan produk (studi kasus toko buku online edu4indo. com),'' \emph{Jurnal
  Masyarakat Informatika}, vol.~5, no.~10, pp. 34--43, 2015.

\bibitem{pradnyana2012perancangan}
G.~A. Pradnyana, ``Perancangan dan implementasi automated document integration
  dengan menggunakan algoritma complete linkage agglomerative hierarchical
  clustering,'' \emph{Jurnal Ilmu Komputer}, vol.~5, no.~2, 2012.

\bibitem{HAN201239}
J.~Han, M.~Kamber, and J.~Pei, ``2 - getting to know your data,'' in \emph{Data
  Mining (Third Edition)}, third edition~ed., ser. The Morgan Kaufmann Series
  in Data Management Systems, J.~Han, M.~Kamber, and J.~Pei, Eds.\hskip 1em
  plus 0.5em minus 0.4em\relax Boston: Morgan Kaufmann, 2012, pp. 39 -- 82.

\bibitem{nila2016rancang}
S.~Nila, I.~Afrianto \emph{et~al.}, ``Rancang bangun aplikasi chatbot informasi
  objek wisata kota bandung dengan pendekatan natural language processing,''
  \emph{KOMPUTA-Jurnal Komputer \& Informatika}, vol.~4, no.~1, 2016.

\bibitem{fauziah2014aplikasi}
Y.~Fauziah, ``Aplikasi iklan baris online menggunakan arsitektur rest web
  service,'' \emph{Telematika}, vol.~9, no.~2, 2014.

\bibitem{wolstencroft2013taverna}
K.~Wolstencroft, R.~Haines, D.~Fellows, A.~Williams, D.~Withers, S.~Owen,
  S.~Soiland-Reyes, I.~Dunlop, A.~Nenadic, P.~Fisher \emph{et~al.}, ``The
  taverna workflow suite: designing and executing workflows of web services on
  the desktop, web or in the cloud,'' \emph{Nucleic acids research}, vol.~41,
  no.~W1, pp. W557--W561, 2013.

\bibitem{mustaqbal2016pengujian}
M.~S. Mustaqbal, R.~F. Firdaus, and H.~Rahmadi, ``Pengujian aplikasi
  menggunakan black box testing boundary value analysis (studi kasus: Aplikasi
  prediksi kelulusan smnptn),'' \emph{Jurnal Ilmiah Teknologi Informasi
  Terapan}, vol.~1, no.~3, 2016.

\bibitem{howden1980functional}
W.~E. Howden, ``Functional program testing,'' \emph{IEEE Transactions on
  Software Engineering}, no.~2, pp. 162--169, 1980.

\bibitem{rahardjo2017studi}
M.~Rahardjo, ``Studi kasus dalam penelitian kualitatif: konsep dan
  prosedurnya,'' 2017.

\bibitem{juliansyah2016metodologi}
S.~Juliansyah~Noor \emph{et~al.}, \emph{Metodologi Penelitian: Skripsi, Tesis,
  Disertasi \& Karya Ilmiah}.\hskip 1em plus 0.5em minus 0.4em\relax Prenada
  Media, 2016.

\bibitem{pressman2012rekayasa}
R.~S. Pressman, \emph{Rekayasa Perangkat Lunak: Pendekatan Praktisi}.\hskip 1em
  plus 0.5em minus 0.4em\relax Andi, 2012.

\bibitem{yanto2016manajemen}
R.~Yanto, \emph{Manajemen Basis Data Menggunakan MySQL}.\hskip 1em plus 0.5em
  minus 0.4em\relax Deepublish, 2016.

\bibitem{alegroth2013transitioning}
E.~Alegroth, R.~Feldt, and H.~H. Olsson, ``Transitioning manual system test
  suites to automated testing: An industrial case study,'' in \emph{2013 IEEE
  Sixth International Conference on Software Testing, Verification and
  Validation}.\hskip 1em plus 0.5em minus 0.4em\relax IEEE, 2013, pp. 56--65.

\end{thebibliography}
